municipio,ref,celula_b4h,nivel,
sp-spa,sul,0303332131⬓,L10.5,
sp-spa,sul,0303332133⬒,L10.5,
sp-spa,sul,0303333020⬓,L10.5,
sp-spa,sul,0303333022⬒,L10.5,
sp-spa,norte,03033330303⬓,L11.5,
sp-spa,norte,03033330321,L11.0,
sp-spa,norte,03033330323⬒,L11.5,
sp-spa,norte,0303333033,L10.0,
sp-spa,centro-sul,03033330212⬓,L11.5,
sp-spa,centro-sul,03033330230⬒,L11.5,
sp-spa,centro-sul,03033330230⬓,L11.5,
sp-spa,centro,03033330213⬓,L11.5,
sp-spa,centro,03033330231⬒,L11.5,
sp-spa,centro,03033330233⬒,L11.5,
sp-spa,centro,03033330302⬓,L11.5,
sp-spa,centro,03033330303⬓,L11.5,
sp-spa,centro,03033330320⬓,L11.5,
sp-spa,centro,03033330322⬓,L11.5,
sp-spa,centro,03033330323⬒,L11.5,
sp-spa,centro,03033332011⬒,L11.5,
sp-spa,centro,03033332100⬒,L11.5,
sp-spa,carmo,0303333023233,L13.0,
sp-spa,carmo,03033330233⬓,L11.5,
sp-spa,~centro,030333303222,L12,"revisar,  o melhor é primeiro substituir L11.5 depois usar a densidade"
sp-spa,~centro,030333302331,L12,usar L12.5 para o centrão e mais 3 formando mosaico ou sobreposições
sp-spa,~centro,030333303220,L12,
sp-spa,~centro,030333303202,L12,
sp-spa,~centro,030333302313,L12,
sp-spa,~centro,030333303203,L12,
sp-spa,~centro,030333303201,L12,
sp-spa,~centro,030333302312,L12,
sp-spa,_RESERVA,,,
